%YAML 1.1
%TAG !u! tag:unity3d.com,2011:
--- !u!114 &11400000
MonoBehaviour:
  m_ObjectHideFlags: 0
  m_CorrespondingSourceObject: {fileID: 0}
  m_PrefabInstance: {fileID: 0}
  m_PrefabAsset: {fileID: 0}
  m_GameObject: {fileID: 0}
  m_Enabled: 1
  m_EditorHideFlags: 0
  m_Script: {fileID: 11500000, guid: 112b45a0334252949bb75f35d111b6b7, type: 3}
  m_Name: TD_Level_01
  m_EditorClassIdentifier: 
  mapTexture: {fileID: 2800000, guid: 38af6877ebd1e6f4f9b6cd33f55fb9fa, type: 3}
  budgetCurve:
    serializedVersion: 2
    m_Curve:
    - serializedVersion: 3
      time: 0
      value: 1
      inSlope: 4
      outSlope: 4
      tangentMode: 34
      weightedMode: 0
      inWeight: 0
      outWeight: 0.33333334
    - serializedVersion: 3
      time: 1
      value: 5
      inSlope: 4
      outSlope: 4
      tangentMode: 34
      weightedMode: 0
      inWeight: 0.33333334
      outWeight: 0
    m_PreInfinity: 2
    m_PostInfinity: 2
    m_RotationOrder: 4
  healthCurve:
    serializedVersion: 2
    m_Curve:
    - serializedVersion: 3
      time: 0
      value: 20
      inSlope: 480
      outSlope: 480
      tangentMode: 34
      weightedMode: 0
      inWeight: 0
      outWeight: 0.33333334
    - serializedVersion: 3
      time: 1
      value: 500
      inSlope: 480
      outSlope: 480
      tangentMode: 34
      weightedMode: 0
      inWeight: 0.33333334
      outWeight: 0
    m_PreInfinity: 2
    m_PostInfinity: 2
    m_RotationOrder: 4
  startingHealth: 35
  startingGold: 100
  waveIntervalSeconds: 15
  respawnCooldown: 5
  monsters:
  - {fileID: 8826916661136738425, guid: b6108dfe4a63d2546bc088a5743cdda3, type: 3}
  - {fileID: 8826916661136738425, guid: c296e2da401a2a94280709d10d2e7f97, type: 3}
  - {fileID: 8826916661136738425, guid: cc8d6038502dc664f89b01d8b4409efc, type: 3}
  - {fileID: 8826916661136738425, guid: fc9cd71c8c164444a91ba681a027f141, type: 3}
  - {fileID: 8826916661136738425, guid: deeb4ae4e3575664e96f484b88bd79d5, type: 3}
  waveCount: 30
  mountainPrefabs:
  - {fileID: 6608291367346530653, guid: 2113f65d71e012a4da23c95da16aa5d4, type: 3}
  - {fileID: 7834517924985040128, guid: 401dc080240daac41bac77a92c07ab5f, type: 3}
  - {fileID: 6558653718015968130, guid: da90715fbf954c9498b92552e272af6c, type: 3}
  - {fileID: 6907942475525362772, guid: 920316ff36401cf4d8e9dc362e6072c3, type: 3}
  - {fileID: 7772382916620925952, guid: 5a03f100cf333bd4aaec5106658f09c6, type: 3}
  - {fileID: 6774807715967023256, guid: 86b9f5c1d916c5c459f4d4e91a0b49c5, type: 3}
