{
    "name": "TD",
    "rootNamespace": "",
    "references": [
        "GUID:efa45043feb7e4147a305b73b5cea642",
        "GUID:75469ad4d38634e559750d17036d5f7c",
        "GUID:6055be8ebefd69e48b49212b09b47b2f",
        "GUID:cd1e5184741b36c418f205b1e6ee85b6",
        "GUID:4c25c05f410a3a447a75c3b0909152ef",
        "GUID:3eae0364be2026648bf74846acb8a731",
        "GUID:9a1e9dc7d6988ba41a79751a2657a70e"
    ],
    "includePlatforms": [],
    "excludePlatforms": [],
    "allowUnsafeCode": false,
    "overrideReferences": false,
    "precompiledReferences": [],
    "autoReferenced": true,
    "defineConstraints": [],
    "versionDefines": [],
    "noEngineReferences": false
}