%YAML 1.1
%TAG !u! tag:unity3d.com,2011:
--- !u!114 &11400000
MonoBehaviour:
  m_ObjectHideFlags: 0
  m_CorrespondingSourceObject: {fileID: 0}
  m_PrefabInstance: {fileID: 0}
  m_PrefabAsset: {fileID: 0}
  m_GameObject: {fileID: 0}
  m_Enabled: 1
  m_EditorHideFlags: 0
  m_Script: {fileID: 11500000, guid: 7f648dac2239a034aada6deb62152e34, type: 3}
  m_Name: TD_Gatling_Gun_02
  m_EditorClassIdentifier: 
  id: 1
  label: Gatling Gun
  prefab: {fileID: 8413283378860186262, guid: 9e080e0d2a4bb3941b3be3ed9f451b1b, type: 3}
  constructionTime: 2
  cost: 5
  hp: 1
  maxInstances: 0
  isBlocking: 1
  attackInterval: 0.33
  attackDamage: 30
  attackRange: 4
  upgrade: {fileID: 11400000, guid: 16f86061d1f029147943e2cdc36630dc, type: 2}
