%YAML 1.1
%TAG !u! tag:unity3d.com,2011:
--- !u!114 &11400000
MonoBehaviour:
  m_ObjectHideFlags: 0
  m_CorrespondingSourceObject: {fileID: 0}
  m_PrefabInstance: {fileID: 0}
  m_PrefabAsset: {fileID: 0}
  m_GameObject: {fileID: 0}
  m_Enabled: 1
  m_EditorHideFlags: 0
  m_Script: {fileID: 11500000, guid: 2cf7e4bd3307d0a488f4eb0c6990f54f, type: 3}
  m_Name: TD_Class_Anchorman
  m_EditorClassIdentifier: 
  entityType: 8
  icon: {fileID: 0}
  descriptionKey: class_anchorman
  prefab: {fileID: 7600721145432059203, guid: c72fd4c8c630b3b42a08e13bd6404a50, type: 3}
  towers:
  - {fileID: 11400000, guid: 7656a6a408a20a24ca086cfa55f81331, type: 2}
