<?xml version="1.0" encoding="utf-8"?>
<!-- Generator: Adobe Illustrator 21.0.0, SVG Export Plug-In . SVG Version: 6.00 Build 0)  -->
<svg version="1.1" id="Main" xmlns="http://www.w3.org/2000/svg" xmlns:xlink="http://www.w3.org/1999/xlink" x="0px" y="0px"
	 viewBox="0 0 64 64" style="enable-background:new 0 0 64 64;" xml:space="preserve">
<g>
	<g>
		<path d="M53.9,4H10.1C6.7,4,4,6.7,4,10.1v43.9c0,3.3,2.7,6.1,6.1,6.1h43.9c3.3,0,6.1-2.7,6.1-6.1V10.1C60,6.7,57.3,4,53.9,4z
			 M38.6,36.3H25.4V29h13.2V36.3z"/>
	</g>
</g>
</svg>
