<?xml version="1.0" encoding="utf-8"?>
<!-- Generator: Adobe Illustrator 21.0.0, SVG Export Plug-In . SVG Version: 6.00 Build 0)  -->
<svg version="1.1" id="Main" xmlns="http://www.w3.org/2000/svg" xmlns:xlink="http://www.w3.org/1999/xlink" x="0px" y="0px"
	 viewBox="0 0 64 64" style="enable-background:new 0 0 64 64;" xml:space="preserve">
<g>
	<g>
		<path d="M57.5,4h-51C2.9,4,0,6.9,0,10.5v43C0,57.1,2.9,60,6.5,60h51c3.6,0,6.5-2.9,6.5-6.5v-43C64,6.9,61.1,4,57.5,4z M56,50H26
			L8,32l18-18h30V50z"/>
	</g>
	<g>
		<path d="M27.2,47H53V17H27.2l-15,15L27.2,47z M29.4,25.5l2.1-2.1l6.4,6.4l6.4-6.4l2.1,2.1L40.1,32l6.4,6.4l-2.1,2.1L38,34.1
			l-6.4,6.4l-2.1-2.1l6.4-6.4L29.4,25.5z"/>
	</g>
</g>
</svg>
