%YAML 1.1
%TAG !u! tag:unity3d.com,2011:
--- !u!114 &11400000
MonoBehaviour:
  m_ObjectHideFlags: 0
  m_CorrespondingSourceObject: {fileID: 0}
  m_PrefabInstance: {fileID: 0}
  m_PrefabAsset: {fileID: 0}
  m_GameObject: {fileID: 0}
  m_Enabled: 1
  m_EditorHideFlags: 0
  m_Script: {fileID: 11500000, guid: 902aa815b953bca419f422e2054c5a3f, type: 3}
  m_Name: TD_Cliffs
  m_EditorClassIdentifier: 
  outOfRangeSet: 1
  center: {fileID: -9086374645316371211, guid: 6eab0709931c66d4e89457fc117a535a, type: 3}
  innerCorner: {fileID: -6472632126303108633, guid: 6eab0709931c66d4e89457fc117a535a, type: 3}
  bridge: {fileID: 0}
  tee: {fileID: 0}
  split: {fileID: 0}
  cross: {fileID: 0}
  outerCorner: {fileID: 3252519902816130656, guid: 6eab0709931c66d4e89457fc117a535a, type: 3}
  edge: {fileID: -6702416514826764789, guid: 6eab0709931c66d4e89457fc117a535a, type: 3}
  ridge: {fileID: 0}
  ridgeBend: {fileID: 0}
  ridgeTee: {fileID: 0}
  ridgeEnd: {fileID: 0}
  corneredEdge: {fileID: 0}
  corneredEdgeMirrored: {fileID: 0}
  island: {fileID: 0}
  materials:
  - {fileID: 2100000, guid: 1b7945ff2bd3b1a428087031f87adb23, type: 2}
  - {fileID: 2100000, guid: 3c9522e2f0899764f9cb4701bc53bf12, type: 2}
