%YAML 1.1
%TAG !u! tag:unity3d.com,2011:
--- !u!114 &11400000
MonoBehaviour:
  m_ObjectHideFlags: 0
  m_CorrespondingSourceObject: {fileID: 0}
  m_PrefabInstance: {fileID: 0}
  m_PrefabAsset: {fileID: 0}
  m_GameObject: {fileID: 0}
  m_Enabled: 1
  m_EditorHideFlags: 0
  m_Script: {fileID: 11500000, guid: 720b31257be9f654a9580c7d97e5bb6f, type: 3}
  m_Name: TD_Air_Strike_Beacon
  m_EditorClassIdentifier: 
  id: 0
  label: Air Strike Beacon
  prefab: {fileID: -401944587830972282, guid: dde3f0d8cf37b4d429ecc2d6e5512dd5, type: 3}
  constructionTime: 0.2
  cost: 0
  hp: 1
  maxInstances: 1
  isBlocking: 0
  attackInterval: 0
  attackDamage: 0
  attackRange: 0
