%YAML 1.1
%TAG !u! tag:unity3d.com,2011:
--- !u!114 &-5213900395520578627
MonoBehaviour:
  m_ObjectHideFlags: 11
  m_CorrespondingSourceObject: {fileID: 0}
  m_PrefabInstance: {fileID: 0}
  m_PrefabAsset: {fileID: 0}
  m_GameObject: {fileID: 0}
  m_Enabled: 1
  m_EditorHideFlags: 0
  m_Script: {fileID: 11500000, guid: d0353a89b1f911e48b9e16bdc9f2e058, type: 3}
  m_Name: 
  m_EditorClassIdentifier: 
  version: 5
--- !u!21 &2100000
Material:
  serializedVersion: 6
  m_ObjectHideFlags: 0
  m_CorrespondingSourceObject: {fileID: 0}
  m_PrefabInstance: {fileID: 0}
  m_PrefabAsset: {fileID: 0}
  m_Name: TD_Terrain_With_Grid_01
  m_Shader: {fileID: -6465566751694194690, guid: 6f2c00b5e616c6841ae00ccf88a1b828, type: 3}
  m_ShaderKeywords: 
  m_LightmapFlags: 4
  m_EnableInstancingVariants: 0
  m_DoubleSidedGI: 0
  m_CustomRenderQueue: -1
  stringTagMap: {}
  disabledShaderPasses: []
  m_SavedProperties:
    serializedVersion: 3
    m_TexEnvs:
    - _SampleTexture2D_38c0caf17d4242b59e40eec74e52a0a9_Texture_1:
        m_Texture: {fileID: 2800000, guid: c3d429c72569ab6478c8c20304e8e0fb, type: 3}
        m_Scale: {x: 1, y: 1}
        m_Offset: {x: 0, y: 0}
    - _Texture:
        m_Texture: {fileID: 2800000, guid: a9dc3544d57b35f4ea70a24eace0576b, type: 3}
        m_Scale: {x: 1, y: 1}
        m_Offset: {x: 0, y: 0}
    - unity_Lightmaps:
        m_Texture: {fileID: 0}
        m_Scale: {x: 1, y: 1}
        m_Offset: {x: 0, y: 0}
    - unity_LightmapsInd:
        m_Texture: {fileID: 0}
        m_Scale: {x: 1, y: 1}
        m_Offset: {x: 0, y: 0}
    - unity_ShadowMasks:
        m_Texture: {fileID: 0}
        m_Scale: {x: 1, y: 1}
        m_Offset: {x: 0, y: 0}
    m_Ints: []
    m_Floats:
    - Vector1_530655d3236f4d5d87b819fe596d28b3: 0.24
    - Vector1_8af782872d974469ba5fb9406e2528c0: 56.4
    - Vector1_9c00ca529fa84b538c6b6004287c5a54: 2
    - Vector1_ce877bee62b04cb2bdec0e7070f8af64: 56.6
    - _QueueControl: 0
    - _QueueOffset: 0
    m_Colors:
    - _Color: {r: 0, g: 0, b: 0, a: 0.57254905}
  m_BuildTextureStacks: []
